module github.com/go-ldap/ldap/v3

go 1.13

require (
	github.com/Azure/go-ntlmssp v0.0.0-20211209120228-48547f28849e
	github.com/go-asn1-ber/asn1-ber v1.5.4
	golang.org/x/crypto v0.0.0-20220331220935-ae2d96664a29 // indirect
)
